{
    "name": "refreshRoom",
    "description": "Refresh Room",
    "runtime": "nodejs4.3",
    "memory": 1024,
    "timeout": 60,
    "role": "arn:aws:iam::954804258659:role/aws-nodejs-dev-IamRoleLambdaExecution-7LS6GPL2FJSJ"
}