{
  "name": "bidItem",
  "description": "Bid On Item in Auction",
  "runtime": "nodejs4.3",
  "memory": 512,
  "timeout": 120,
  "role": "arn:aws:iam::954804258659:role/aws-nodejs-dev-IamRoleLambdaExecution-7LS6GPL2FJSJ"
}